{
  "scanId": "62660703-0d89-40f7-b74a-e2dcf4dbd0c1",
  "envId": "e13d287e-9ded-4b33-b435-cf9fd4169a3e",
  "envName": "Demo_Azure",
  "summary": {
    "resources": 8,
    "violation": 6,
    "high": 1,
    "medium": 3,
    "low": 2,
    "native": 6,
    "inherit": 0
  },
  "enforcingModeSummary": {
    "violation": 0,
    "low": 0,
    "medium": 0,
    "high": 0
  },
  "violations": [
    {
      "type": "azurerm_linux_virtual_machine",
      "id": "azurerm_linux_virtual_machine.dev-webserver",
      "name": "dev-webserver",
      "source": "https://gitlab.com/Susmita1011/terraform-sample-project/-/blob//:",
      "commitUrl": "https://gitlab.com/Susmita1011/terraform-sample-project/-/blob/145e9b2aa8a0300afb6cea3f5a978d2f7d9226e1/:",
      "file": "/:",
      "rule": "encryptionLinuxCheck",
      "vulnerability": "Description:\n\nEnsure that OS disks (boot volumes) and data disks (non-boot volumes) are encrypted with CMK (Customer Managed Keys).\nCustomer Managed keys can be either ADE or Server Side Encryption(SSE)\n\nRationale:\n\nEncrypting the IaaS VM's OS disk (boot volume), Data disks (non-boot volume) ensures that the entire content is fully unrecoverable without a key and thus protects the volume from unwanted reads. PMK (Platform Managed Keys) are enabled by default in Azure managed disks and allow encryption at rest. CMK is the recommended because it gives the customer the option to control which specific keys are used for the encryption and decryption of the disk. The customer can then change keys and disable them increasing security, instead of relying on the PMK key that remains unchanging. There is also the option to increase security further by using automatically rotating keys, so that access to disk is ensured to be limited. However organizations should evaluate what their security requirements are for the data stored on the disk. For high risk data using CMK is a must, as it is extra steps of security. If the data is low risk, PMK is enabled by default, and provides sufficient data security.\n\nUsing CMK/BYOK will entail additional management of keys.\n\n**NOTE:** You must have your key vault setup to utilize this.",
      "remediation": "**From Azure Console**\n**Note:** Disks must be detached from VMs to have encryption changed.\n\n1. Go to `Virtual machines`\n2. For each virtual machine, go to `Settings`\n3. Click on `Disks`\n4. Click the `X` to detach the disk from the VM\n5. Now search for `Disks` and locate the unattached disk\n6. Click the disk then select `Encryption`\n7. Change your encryption type, then select your encryption set\n8. Click `Save`\n9. Go back to the VM and re-attach the disk\n\n**Using PowerShell**\n\n```\n$KVRGname = 'MyKeyVaultResourceGroup';\n $VMRGName = 'MyVirtualMachineResourceGroup';\n $vmName = 'MySecureVM';\n $KeyVaultName = 'MySecureVault';\n $KeyVault = Get-AzKeyVault -VaultName $KeyVaultName -ResourceGroupName $KVRGname;\n $diskEncryptionKeyVaultUrl = $KeyVault.VaultUri;\n $KeyVaultResourceId = $KeyVault.ResourceId;\n\n Set-AzVMDiskEncryptionExtension -ResourceGroupName $VMRGname -VMName $vmName -DiskEncryptionKeyVaultUrl $diskEncryptionKeyVaultUrl -DiskEncryptionKeyVaultId $KeyVaultResourceId;\n```\n\n**NOTE:** During encryption it is likely that a reboot will be required, it may take up to 15 minutes to complete the process.\n\n**NOTE 2:** This may differ for Linux Machines as you may need to set the `-skipVmBackup` parameter.",
      "severity": "MEDIUM",
      "inference": "native",
      "policyName": "Accurics Security Best Practices for Azure v2",
      "ruleDisplayName": "Ensure that 'OS and Data' disks are encrypted with Customer Managed Key (CMK)",
      "policyMode": "monitoring"
    }, 
    {
      "type": "azurerm_linux_virtual_machine",
      "id": "azurerm_linux_virtual_machine.dev-webserver",
      "name": "dev-webserver",
      "source": "https://gitlab.com/Susmita1011/terraform-sample-project/-/blob//:",
      "commitUrl": "https://gitlab.com/Susmita1011/terraform-sample-project/-/blob/145e9b2aa8a0300afb6cea3f5a978d2f7d9226e1/:",
      "file": "/:",
      "rule": "enableDiagnostics",
      "vulnerability": "Disabled boot diagnostics for Azure Virtual Machine may lead to loss of critical logs.",
      "remediation": "Set 'enabled' in 'boot_diagnostics' to 'true' to enable boot diagnostics for Azure Virtual Machine, ensuring important logs are preserved for incident response and audits.",
      "severity": "MEDIUM",
      "inference": "native",
      "policyName": "Accurics Security Best Practices for Azure v2",
      "ruleDisplayName": "Ensure boot diagnostics are enabled for Azure Virtual Machine",
      "policyMode": "monitoring"
    }, 
    {
      "type": "azurerm_linux_virtual_machine",
      "id": "azurerm_linux_virtual_machine.dev-webserver",
      "name": "dev-webserver",
      "source": "https://gitlab.com/Susmita1011/terraform-sample-project/-/blob//:",
      "commitUrl": "https://gitlab.com/Susmita1011/terraform-sample-project/-/blob/145e9b2aa8a0300afb6cea3f5a978d2f7d9226e1/:",
      "file": "/:",
      "rule": "linuxVMExtensionInstalled",
      "vulnerability": "VM extensions are found to be installed on Linux VM's Azure Linux Virtual Machine, this may compromise security by allowing access to unauthorized actors.",
      "remediation": "Set 'allow_extension_operations' to 'false' to avoid vulnerabilities that may be introduced by enabling virtual machine extensions for Azure Linux Virtual Machine.",
      "severity": "MEDIUM",
      "inference": "native",
      "policyName": "Accurics Security Best Practices for Azure v2",
      "ruleDisplayName": "Ensure VM extensions are not installed on Linux VM's in Azure Linux Virtual Machine",
      "policyMode": "monitoring"
    }, 
    {
      "type": "azurerm_linux_virtual_machine",
      "id": "azurerm_linux_virtual_machine.dev-webserver",
      "name": "dev-webserver",
      "source": "https://gitlab.com/Susmita1011/terraform-sample-project/-/blob//:",
      "commitUrl": "https://gitlab.com/Susmita1011/terraform-sample-project/-/blob/145e9b2aa8a0300afb6cea3f5a978d2f7d9226e1/:",
      "file": "/:",
      "rule": "linuxVmBackupDisabled",
      "vulnerability": "Azure Linux Virtual Machines do not have backups configured using Azure Backup. Disabled backups could lead to data loss incase of failure.",
      "remediation": "Azure Linux Virtual Machines have backups configured using Azure Backup. Backups allow for data recovery incase of failure. Using Azure Backup data backup is possible using appropriate backup policy, then recovery points are created from those backups and stored in the Azure Recovery Services vaults.",
      "severity": "LOW",
      "inference": "native",
      "policyName": "Accurics Security Best Practices for Azure v2",
      "ruleDisplayName": "Ensure backup is enabled using Azure Backup for Azure Linux Virtual Machines",
      "policyMode": "monitoring"
    }, 
    {
      "type": "azurerm_network_interface",
      "id": "azurerm_network_interface.dev-nic",
      "name": "dev-nic",
      "source": "https://gitlab.com/Susmita1011/terraform-sample-project/-/blob//:",
      "commitUrl": "https://gitlab.com/Susmita1011/terraform-sample-project/-/blob/145e9b2aa8a0300afb6cea3f5a978d2f7d9226e1/:",
      "file": "/:",
      "rule": "accelerateNetwork",
      "vulnerability": "Disabled accelerated networking via Azure Network Interface may increase latency.",
      "remediation": "Set 'enable_accelerated_networking' to 'true' for Azure Network Interface to decrease latency.",
      "severity": "LOW",
      "inference": "native",
      "policyName": "Accurics Security Best Practices for Azure v2",
      "ruleDisplayName": "Ensure that Accelerated Networking feature is enabled for your Azure virtual machines (VMs) in order to provide low latency and high throughput for the Azure Network Interface",
      "policyMode": "monitoring"
    }, 
    {
      "type": "azurerm_network_security_rule",
      "id": "azurerm_network_security_rule.dev-security-rule",
      "name": "dev-security-rule",
      "source": "https://gitlab.com/Susmita1011/terraform-sample-project/-/blob//:",
      "commitUrl": "https://gitlab.com/Susmita1011/terraform-sample-project/-/blob/145e9b2aa8a0300afb6cea3f5a978d2f7d9226e1/:",
      "file": "/:",
      "rule": "networkPortAllExposedToInternetAz",
      "vulnerability": "Network security group allow traffic from all ports to all internal ports of an organization.",
      "remediation": "Configure Network Security Rule for all ports to ensure it is not exposed to entire internet. In console -\n1. In settings of NSG select Inbound security rules.\n2. Use Add button here to add security rules.\n3. Create security rules for any application, port range, ip range.\nIn terraform -\nSet the value of 'access' to [allow | deny]. Set the value of 'direction' to 'inbound'. Set the value of 'source_address_prefix' to an IP address or a range of IP addresses. These network security rules in controlling inbound connections to your resources in Azure.",
      "severity": "HIGH",
      "inference": "native",
      "policyName": "Accurics Security Best Practices for Azure v2",
      "ruleDisplayName": "Ensure that request initiated from all ports (*) for all destination ports (*) is restricted from the internet for Azure Network Security Rule",
      "policyMode": "monitoring"
    }
  ],
  "HasErrors": false,
  "current_repo_violations": null,
  "current_repo_summary": {
    "id": "90d7573b-0e82-400f-8d88-742e3ca826ef",
    "resources": 8,
    "violation": 6,
    "high": 1,
    "medium": 3,
    "low": 2,
    "native": 6,
    "inherit": 0
  },
  "cliVersion": "1.0.36.13"
}
